{
    "group_name": "at_ni_group",
    "title": "New Indicator Text",
    "description": "Styles the new node indicator if enabled.",
    "property_type": "css",
    "css_components": [
        "text"
    ],
    "value_type": "",
    "value_parameters": "",
    "depends_on": "",
    "value_group": "",
    "property_value": {
        "font-weight": "@xf-fontWeightHeavy"
    },
    "display_order": 1
}